ply
format ascii 1.0
comment Created by Blender 2.79 (sub 0) - www.blender.org, source file: 'CuteRobotParts2.blend'
element vertex 970
property float x
property float y
property float z
property float nx
property float ny
property float nz
property uchar red
property uchar green
property uchar blue
element face 336
property list uchar uint vertex_indices
end_header
0.013365 0.003000 -0.021932 0.965793 0.258819 0.015994 0 0 0
0.013398 0.003000 -0.023931 0.965793 0.258819 0.015994 0 0 0
0.013264 0.003500 -0.023934 0.965793 0.258819 0.015994 0 0 0
0.013365 0.003000 -0.021932 0.965792 0.258825 0.015996 0 0 0
0.013264 0.003500 -0.023934 0.965792 0.258825 0.015996 0 0 0
0.013231 0.003500 -0.021934 0.965792 0.258825 0.015996 0 0 0
0.013231 0.003500 -0.021934 0.707007 0.707110 0.011710 0 0 0
0.013264 0.003500 -0.023934 0.707007 0.707110 0.011710 0 0 0
0.012898 0.003866 -0.023940 0.707007 0.707110 0.011710 0 0 0
0.013231 0.003500 -0.021934 0.707009 0.707107 0.011709 0 0 0
0.012898 0.003866 -0.023940 0.707009 0.707107 0.011709 0 0 0
0.012865 0.003866 -0.021940 0.707009 0.707107 0.011709 0 0 0
0.012865 0.003866 -0.021940 0.258810 0.965919 0.004287 0 0 0
0.012898 0.003866 -0.023940 0.258810 0.965919 0.004287 0 0 0
0.012398 0.004000 -0.023948 0.258810 0.965919 0.004287 0 0 0
0.012365 0.004000 -0.021948 0.258810 0.965919 0.004287 0 0 0
0.013398 -0.025000 -0.023931 0.016549 -0.000006 -0.999863 0 0 0
0.000400 -0.004750 -0.024147 0.016549 -0.000006 -0.999863 0 0 0
0.002217 -0.004388 -0.024117 0.016549 -0.000006 -0.999863 0 0 0
0.000400 -0.004750 -0.024147 0.016558 0.000000 -0.999863 0 0 0
0.013398 -0.025000 -0.023931 0.016558 0.000000 -0.999863 0 0 0
-0.001418 -0.004388 -0.024177 0.016558 0.000000 -0.999863 0 0 0
-0.012598 -0.025000 -0.024362 0.016558 0.000000 -0.999863 0 0 0
-0.001418 -0.004388 -0.024177 0.016562 -0.000002 -0.999863 0 0 0
-0.012598 -0.025000 -0.024362 0.016562 -0.000002 -0.999863 0 0 0
-0.002958 -0.003359 -0.024202 0.016562 -0.000002 -0.999863 0 0 0
-0.012598 0.003000 -0.024362 0.016558 -0.000000 -0.999863 0 0 0
-0.004349 -0.000000 -0.024225 0.016558 -0.000000 -0.999863 0 0 0
-0.012598 -0.025000 -0.024362 0.016569 -0.000004 -0.999863 0 0 0
-0.004349 -0.000000 -0.024225 0.016569 -0.000004 -0.999863 0 0 0
-0.003988 -0.001818 -0.024219 0.016569 -0.000004 -0.999863 0 0 0
-0.012598 -0.025000 -0.024362 0.016553 0.000002 -0.999863 0 0 0
-0.003988 -0.001818 -0.024219 0.016553 0.000002 -0.999863 0 0 0
-0.002958 -0.003359 -0.024202 0.016553 0.000002 -0.999863 0 0 0
0.002217 -0.004388 -0.024117 0.016561 0.000001 -0.999863 0 0 0
0.003758 -0.003359 -0.024091 0.016561 0.000001 -0.999863 0 0 0
0.013398 -0.025000 -0.023931 0.016561 0.000001 -0.999863 0 0 0
0.004788 -0.001818 -0.024074 0.016561 0.000001 -0.999863 0 0 0
0.013398 -0.025000 -0.023931 0.016557 -0.000000 -0.999863 0 0 0
0.004788 -0.001818 -0.024074 0.016557 -0.000000 -0.999863 0 0 0
0.013398 0.003000 -0.023931 0.016557 -0.000000 -0.999863 0 0 0
0.013398 0.003000 -0.023931 0.016560 -0.000005 -0.999863 0 0 0
0.004788 -0.001818 -0.024074 0.016560 -0.000005 -0.999863 0 0 0
0.005149 -0.000000 -0.024068 0.016560 -0.000005 -0.999863 0 0 0
0.013398 0.003000 -0.023931 0.016558 -0.000001 -0.999863 0 0 0
0.005149 -0.000000 -0.024068 0.016558 -0.000001 -0.999863 0 0 0
0.005149 0.003000 -0.024068 0.016558 -0.000001 -0.999863 0 0 0
-0.005349 0.004000 -0.024242 0.016543 -0.000016 -0.999863 0 0 0
-0.004849 0.003866 -0.024234 0.016543 -0.000016 -0.999863 0 0 0
-0.004483 0.003500 -0.024228 0.016543 -0.000016 -0.999863 0 0 0
-0.012464 0.003500 -0.024360 0.016467 0.000062 -0.999864 255 255 255
-0.012098 0.003866 -0.024354 0.016467 0.000062 -0.999864 255 255 255
-0.012598 0.003000 -0.024362 0.016467 0.000062 -0.999864 255 255 255
-0.012598 0.003000 -0.024362 0.016560 0.000008 -0.999863 0 0 0
-0.012098 0.003866 -0.024354 0.016560 0.000008 -0.999863 0 0 0
-0.011598 0.004000 -0.024345 0.016560 0.000008 -0.999863 0 0 0
-0.012598 0.003000 -0.024362 0.016561 0.000007 -0.999863 0 0 0
-0.011598 0.004000 -0.024345 0.016561 0.000007 -0.999863 0 0 0
-0.004349 -0.000000 -0.024225 0.016561 0.000007 -0.999863 0 0 0
-0.004349 -0.000000 -0.024225 0.016557 0.000001 -0.999863 0 0 0
-0.011598 0.004000 -0.024345 0.016557 0.000001 -0.999863 0 0 0
-0.005349 0.004000 -0.024242 0.016557 0.000001 -0.999863 0 0 0
-0.004349 -0.000000 -0.024225 0.016560 0.000001 -0.999863 0 0 0
-0.005349 0.004000 -0.024242 0.016560 0.000001 -0.999863 0 0 0
-0.004349 0.003000 -0.024225 0.016560 0.000001 -0.999863 0 0 0
-0.004349 0.003000 -0.024225 0.016544 -0.000015 -0.999863 0 0 0
-0.005349 0.004000 -0.024242 0.016544 -0.000015 -0.999863 0 0 0
-0.004483 0.003500 -0.024228 0.016544 -0.000015 -0.999863 0 0 0
0.012898 0.003866 -0.023940 0.016534 -0.000025 -0.999863 0 0 0
0.013264 0.003500 -0.023934 0.016534 -0.000025 -0.999863 0 0 0
0.012398 0.004000 -0.023948 0.016534 -0.000025 -0.999863 0 0 0
0.012398 0.004000 -0.023948 0.016544 -0.000008 -0.999863 0 0 0
0.013264 0.003500 -0.023934 0.016544 -0.000008 -0.999863 0 0 0
0.013398 0.003000 -0.023931 0.016544 -0.000008 -0.999863 0 0 0
0.012398 0.004000 -0.023948 0.016558 0.000006 -0.999863 0 0 0
0.013398 0.003000 -0.023931 0.016558 0.000006 -0.999863 0 0 0
0.006149 0.004000 -0.024051 0.016558 0.000006 -0.999863 0 0 0
0.006149 0.004000 -0.024051 0.016558 0.000010 -0.999863 0 0 0
0.013398 0.003000 -0.023931 0.016558 0.000010 -0.999863 0 0 0
0.005149 0.003000 -0.024068 0.016558 0.000010 -0.999863 0 0 0
0.006149 0.004000 -0.024051 0.016561 0.000008 -0.999863 0 0 0
0.005149 0.003000 -0.024068 0.016561 0.000008 -0.999863 0 0 0
0.005649 0.003866 -0.024060 0.016561 0.000008 -0.999863 0 0 0
0.005649 0.003866 -0.024060 0.016539 0.000020 -0.999863 0 0 0
0.005149 0.003000 -0.024068 0.016539 0.000020 -0.999863 0 0 0
0.005283 0.003500 -0.024066 0.016539 0.000020 -0.999863 0 0 0
0.005149 0.003000 -0.024068 -0.999863 -0.000000 -0.016558 0 0 0
0.005149 -0.000000 -0.024068 -0.999863 -0.000000 -0.016558 0 0 0
0.005116 0.003000 -0.022068 -0.999863 -0.000000 -0.016558 0 0 0
0.005116 0.003000 -0.022068 -0.999863 0.000000 -0.016559 0 0 0
0.005149 -0.000000 -0.024068 -0.999863 0.000000 -0.016559 0 0 0
0.005116 -0.000000 -0.022068 -0.999863 0.000000 -0.016559 0 0 0
0.013365 0.003000 -0.021932 -0.016558 -0.000000 0.999863 0 0 0
0.005116 -0.000000 -0.022068 -0.016558 -0.000000 0.999863 0 0 0
0.013365 -0.024000 -0.021932 -0.016558 -0.000000 0.999863 0 0 0
0.013365 -0.024000 -0.021932 -0.016545 0.000005 0.999863 0 0 0
0.005116 -0.000000 -0.022068 -0.016545 0.000005 0.999863 0 0 0
0.004755 -0.001818 -0.022074 -0.016545 0.000005 0.999863 0 0 0
0.013365 -0.024000 -0.021932 -0.016566 -0.000004 0.999863 0 0 0
0.004755 -0.001818 -0.022074 -0.016566 -0.000004 0.999863 0 0 0
0.003725 -0.003359 -0.022091 -0.016566 -0.000004 0.999863 0 0 0
-0.001451 -0.004388 -0.022177 -0.016557 -0.000001 0.999863 0 0 0
-0.012631 -0.024000 -0.022362 -0.016557 -0.000001 0.999863 0 0 0
0.000367 -0.004750 -0.022147 -0.016557 -0.000001 0.999863 0 0 0
0.000367 -0.004750 -0.022147 -0.016558 -0.000000 0.999863 0 0 0
-0.012631 -0.024000 -0.022362 -0.016558 -0.000000 0.999863 0 0 0
0.000367 -0.004750 -0.022147 -0.016553 0.000003 0.999863 0 0 0
0.013365 -0.024000 -0.021932 -0.016553 0.000003 0.999863 0 0 0
0.002184 -0.004388 -0.022117 -0.016553 0.000003 0.999863 0 0 0
0.002184 -0.004388 -0.022117 -0.016556 0.000001 0.999863 0 0 0
0.013365 -0.024000 -0.021932 -0.016556 0.000001 0.999863 0 0 0
0.003725 -0.003359 -0.022091 -0.016556 0.000001 0.999863 0 0 0
-0.001451 -0.004388 -0.022177 -0.016564 0.000003 0.999863 0 0 0
-0.002992 -0.003359 -0.022203 -0.016564 0.000003 0.999863 0 0 0
-0.012631 -0.024000 -0.022362 -0.016564 0.000003 0.999863 0 0 0
-0.012631 -0.024000 -0.022362 -0.016551 -0.000003 0.999863 0 0 0
-0.002992 -0.003359 -0.022203 -0.016551 -0.000003 0.999863 0 0 0
-0.004021 -0.001818 -0.022220 -0.016551 -0.000003 0.999863 0 0 0
-0.004021 -0.001818 -0.022220 -0.016557 -0.000001 0.999863 0 0 0
-0.012631 0.003000 -0.022362 -0.016557 -0.000001 0.999863 0 0 0
-0.012631 0.003000 -0.022362 -0.016556 0.000002 0.999863 0 0 0
-0.004021 -0.001818 -0.022220 -0.016556 0.000002 0.999863 0 0 0
-0.004383 -0.000000 -0.022226 -0.016556 0.000002 0.999863 0 0 0
-0.012631 0.003000 -0.022362 -0.016556 0.000001 0.999863 0 0 0
-0.004383 -0.000000 -0.022226 -0.016556 0.000001 0.999863 0 0 0
-0.004383 0.003000 -0.022226 -0.016556 0.000001 0.999863 0 0 0
0.006116 0.004000 -0.022052 -0.016538 -0.000052 0.999863 255 255 255
0.005616 0.003866 -0.022060 -0.016538 -0.000052 0.999863 255 255 255
0.005250 0.003500 -0.022066 -0.016538 -0.000052 0.999863 255 255 255
0.013231 0.003500 -0.021934 -0.016544 0.000015 0.999863 255 255 255
0.012865 0.003866 -0.021940 -0.016544 0.000015 0.999863 255 255 255
0.013365 0.003000 -0.021932 -0.016544 0.000015 0.999863 255 255 255
0.013365 0.003000 -0.021932 -0.016544 0.000015 0.999863 0 0 0
0.012865 0.003866 -0.021940 -0.016544 0.000015 0.999863 0 0 0
0.012365 0.004000 -0.021948 -0.016544 0.000015 0.999863 0 0 0
0.013365 0.003000 -0.021932 -0.016559 0.000000 0.999863 0 0 0
0.012365 0.004000 -0.021948 -0.016559 0.000000 0.999863 0 0 0
0.005116 -0.000000 -0.022068 -0.016559 0.000000 0.999863 0 0 0
0.005116 -0.000000 -0.022068 -0.016557 -0.000002 0.999863 0 0 0
0.012365 0.004000 -0.021948 -0.016557 -0.000002 0.999863 0 0 0
0.006116 0.004000 -0.022052 -0.016557 -0.000002 0.999863 0 0 0
0.005116 -0.000000 -0.022068 -0.016560 -0.000001 0.999863 0 0 0
0.006116 0.004000 -0.022052 -0.016560 -0.000001 0.999863 0 0 0
0.005116 0.003000 -0.022068 -0.016560 -0.000001 0.999863 0 0 0
0.005116 0.003000 -0.022068 -0.016577 0.000016 0.999863 0 0 0
0.006116 0.004000 -0.022052 -0.016577 0.000016 0.999863 0 0 0
0.005250 0.003500 -0.022066 -0.016577 0.000016 0.999863 0 0 0
-0.012132 0.003866 -0.022354 -0.016556 0.000018 0.999863 0 0 0
-0.012498 0.003500 -0.022360 -0.016556 0.000018 0.999863 0 0 0
-0.011632 0.004000 -0.022346 -0.016556 0.000018 0.999863 0 0 0
-0.011632 0.004000 -0.022346 -0.016549 0.000005 0.999863 0 0 0
-0.012498 0.003500 -0.022360 -0.016549 0.000005 0.999863 0 0 0
-0.012631 0.003000 -0.022362 -0.016549 0.000005 0.999863 0 0 0
-0.011632 0.004000 -0.022346 -0.016557 0.000013 0.999863 0 0 0
-0.012631 0.003000 -0.022362 -0.016557 0.000013 0.999863 0 0 0
-0.005382 0.004000 -0.022242 -0.016557 0.000013 0.999863 0 0 0
-0.005382 0.004000 -0.022242 -0.016556 0.000005 0.999863 0 0 0
-0.012631 0.003000 -0.022362 -0.016556 0.000005 0.999863 0 0 0
-0.004383 0.003000 -0.022226 -0.016556 0.000005 0.999863 0 0 0
-0.005382 0.004000 -0.022242 -0.016543 0.000018 0.999863 0 0 0
-0.004383 0.003000 -0.022226 -0.016543 0.000018 0.999863 0 0 0
-0.004883 0.003866 -0.022234 -0.016543 0.000018 0.999863 0 0 0
-0.004883 0.003866 -0.022234 -0.016575 -0.000001 0.999863 0 0 0
-0.004383 0.003000 -0.022226 -0.016575 -0.000001 0.999863 0 0 0
-0.004517 0.003500 -0.022228 -0.016575 -0.000001 0.999863 0 0 0
0.006116 0.004000 -0.022052 0.000001 1.000000 0.000001 0 0 0
0.012365 0.004000 -0.021948 0.000001 1.000000 0.000001 0 0 0
0.006149 0.004000 -0.024051 0.000001 1.000000 0.000001 0 0 0
0.012398 0.004000 -0.023948 0.000001 1.000000 0.000001 0 0 0
0.006116 0.004000 -0.022052 -0.258778 0.965927 -0.004285 0 0 0
0.006149 0.004000 -0.024051 -0.258778 0.965927 -0.004285 0 0 0
0.005649 0.003866 -0.024060 -0.258778 0.965927 -0.004285 0 0 0
0.006116 0.004000 -0.022052 -0.258782 0.965926 -0.004284 0 0 0
0.005649 0.003866 -0.024060 -0.258782 0.965926 -0.004284 0 0 0
0.005616 0.003866 -0.022060 -0.258782 0.965926 -0.004284 0 0 0
0.005616 0.003866 -0.022060 -0.707035 0.707082 -0.011707 0 0 0
0.005649 0.003866 -0.024060 -0.707035 0.707082 -0.011707 0 0 0
0.005283 0.003500 -0.024066 -0.707035 0.707082 -0.011707 0 0 0
0.005616 0.003866 -0.022060 -0.707037 0.707080 -0.011707 0 0 0
0.005283 0.003500 -0.024066 -0.707037 0.707080 -0.011707 0 0 0
0.005250 0.003500 -0.022066 -0.707037 0.707080 -0.011707 0 0 0
0.005250 0.003500 -0.022066 -0.965793 0.258819 -0.015991 0 0 0
0.005283 0.003500 -0.024066 -0.965793 0.258819 -0.015991 0 0 0
0.005149 0.003000 -0.024068 -0.965793 0.258819 -0.015991 0 0 0
0.005250 0.003500 -0.022066 -0.965792 0.258825 -0.015993 0 0 0
0.005149 0.003000 -0.024068 -0.965792 0.258825 -0.015993 0 0 0
0.005116 0.003000 -0.022068 -0.965792 0.258825 -0.015993 0 0 0
0.005116 -0.000000 -0.022068 -0.980650 0.195092 -0.016241 0 0 0
0.005149 -0.000000 -0.024068 -0.980650 0.195092 -0.016241 0 0 0
0.004755 -0.001818 -0.022074 -0.980650 0.195092 -0.016241 0 0 0
0.004755 -0.001818 -0.022074 -0.980650 0.195097 -0.016236 0 0 0
0.005149 -0.000000 -0.024068 -0.980650 0.195097 -0.016236 0 0 0
0.004788 -0.001818 -0.024074 -0.980650 0.195097 -0.016236 0 0 0
0.004755 -0.001818 -0.022074 -0.831361 0.555562 -0.013763 0 0 0
0.004788 -0.001818 -0.024074 -0.831361 0.555562 -0.013763 0 0 0
0.003725 -0.003359 -0.022091 -0.831361 0.555562 -0.013763 0 0 0
0.003725 -0.003359 -0.022091 -0.831364 0.555558 -0.013768 0 0 0
0.004788 -0.001818 -0.024074 -0.831364 0.555558 -0.013768 0 0 0
0.003758 -0.003359 -0.024091 -0.831364 0.555558 -0.013768 0 0 0
0.003725 -0.003359 -0.022091 -0.555495 0.831469 -0.009199 0 0 0
0.003758 -0.003359 -0.024091 -0.555495 0.831469 -0.009199 0 0 0
0.002184 -0.004388 -0.022117 -0.555495 0.831469 -0.009199 0 0 0
0.002184 -0.004388 -0.022117 -0.555494 0.831470 -0.009198 0 0 0
0.003758 -0.003359 -0.024091 -0.555494 0.831470 -0.009198 0 0 0
0.002217 -0.004388 -0.024117 -0.555494 0.831470 -0.009198 0 0 0
0.002184 -0.004388 -0.022117 -0.195040 0.980790 -0.003228 0 0 0
0.002217 -0.004388 -0.024117 -0.195040 0.980790 -0.003228 0 0 0
0.000367 -0.004750 -0.022147 -0.195040 0.980790 -0.003228 0 0 0
0.000367 -0.004750 -0.022147 -0.195041 0.980790 -0.003229 0 0 0
0.002217 -0.004388 -0.024117 -0.195041 0.980790 -0.003229 0 0 0
0.000400 -0.004750 -0.024147 -0.195041 0.980790 -0.003229 0 0 0
0.000367 -0.004750 -0.022147 0.195063 0.980785 0.003230 12 12 12
0.000400 -0.004750 -0.024147 0.195063 0.980785 0.003230 0 0 0
-0.001451 -0.004388 -0.022177 0.195063 0.980785 0.003230 0 0 0
-0.001451 -0.004388 -0.022177 0.195064 0.980785 0.003231 0 0 0
0.000400 -0.004750 -0.024147 0.195064 0.980785 0.003231 0 0 0
-0.001418 -0.004388 -0.024177 0.195064 0.980785 0.003231 0 0 0
-0.001451 -0.004388 -0.022177 0.555485 0.831476 0.009200 0 0 0
-0.001418 -0.004388 -0.024177 0.555485 0.831476 0.009200 0 0 0
-0.002992 -0.003359 -0.022203 0.555485 0.831476 0.009200 0 0 0
-0.002992 -0.003359 -0.022203 0.555483 0.831477 0.009198 0 0 0
-0.001418 -0.004388 -0.024177 0.555483 0.831477 0.009198 0 0 0
-0.002958 -0.003359 -0.024202 0.555483 0.831477 0.009198 0 0 0
-0.002992 -0.003359 -0.022203 0.831358 0.555566 0.013766 0 0 0
-0.002958 -0.003359 -0.024202 0.831358 0.555566 0.013766 0 0 0
-0.004021 -0.001818 -0.022220 0.831358 0.555566 0.013766 0 0 0
-0.004021 -0.001818 -0.022220 0.831360 0.555564 0.013769 0 0 0
-0.002958 -0.003359 -0.024202 0.831360 0.555564 0.013769 0 0 0
-0.003988 -0.001818 -0.024219 0.831360 0.555564 0.013769 0 0 0
-0.004021 -0.001818 -0.022220 0.980651 0.195090 0.016241 0 0 0
-0.003988 -0.001818 -0.024219 0.980651 0.195090 0.016241 0 0 0
-0.004383 -0.000000 -0.022226 0.980651 0.195090 0.016241 0 0 0
-0.004383 -0.000000 -0.022226 0.980651 0.195091 0.016240 0 0 0
-0.003988 -0.001818 -0.024219 0.980651 0.195091 0.016240 0 0 0
-0.004349 -0.000000 -0.024225 0.980651 0.195091 0.016240 0 0 0
-0.004383 0.003000 -0.022226 0.999863 0.000000 0.016559 0 0 0
-0.004383 -0.000000 -0.022226 0.999863 0.000000 0.016559 0 0 0
-0.004349 0.003000 -0.024225 0.999863 0.000000 0.016559 0 0 0
-0.004349 0.003000 -0.024225 0.999863 -0.000000 0.016558 0 0 0
-0.004383 -0.000000 -0.022226 0.999863 -0.000000 0.016558 0 0 0
-0.004349 -0.000000 -0.024225 0.999863 -0.000000 0.016558 0 0 0
-0.004383 0.003000 -0.022226 0.965792 0.258825 0.015995 0 0 0
-0.004349 0.003000 -0.024225 0.965792 0.258825 0.015995 0 0 0
-0.004483 0.003500 -0.024228 0.965792 0.258825 0.015995 0 0 0
-0.004517 0.003500 -0.022228 0.965792 0.258825 0.015995 0 0 0
-0.004517 0.003500 -0.022228 0.707008 0.707109 0.011710 0 0 0
-0.004483 0.003500 -0.024228 0.707008 0.707109 0.011710 0 0 0
-0.004849 0.003866 -0.024234 0.707008 0.707109 0.011710 0 0 0
-0.004517 0.003500 -0.022228 0.707008 0.707108 0.011710 0 0 0
-0.004849 0.003866 -0.024234 0.707008 0.707108 0.011710 0 0 0
-0.004883 0.003866 -0.022234 0.707008 0.707108 0.011710 0 0 0
-0.004883 0.003866 -0.022234 0.258804 0.965920 0.004287 0 0 0
-0.004849 0.003866 -0.024234 0.258804 0.965920 0.004287 0 0 0
-0.005349 0.004000 -0.024242 0.258804 0.965920 0.004287 0 0 0
-0.004883 0.003866 -0.022234 0.258810 0.965919 0.004286 0 0 0
-0.005349 0.004000 -0.024242 0.258810 0.965919 0.004286 0 0 0
-0.005382 0.004000 -0.022242 0.258810 0.965919 0.004286 0 0 0
-0.005349 0.004000 -0.024242 0.000001 1.000000 0.000000 0 0 0
-0.011598 0.004000 -0.024345 0.000001 1.000000 0.000000 0 0 0
-0.005382 0.004000 -0.022242 0.000001 1.000000 0.000000 0 0 0
-0.005382 0.004000 -0.022242 0.000001 1.000000 0.000001 0 0 0
-0.011598 0.004000 -0.024345 0.000001 1.000000 0.000001 0 0 0
-0.011632 0.004000 -0.022346 0.000001 1.000000 0.000001 0 0 0
-0.012598 0.003000 -0.024362 -0.965795 0.258813 -0.016002 0 0 0
-0.012631 0.003000 -0.022362 -0.965795 0.258813 -0.016002 0 0 0
-0.012498 0.003500 -0.022360 -0.965795 0.258813 -0.016002 0 0 0
-0.012598 0.003000 -0.024362 -0.965802 0.258786 -0.015994 0 0 0
-0.012498 0.003500 -0.022360 -0.965802 0.258786 -0.015994 0 0 0
-0.012464 0.003500 -0.024360 -0.965802 0.258786 -0.015994 0 0 0
-0.012464 0.003500 -0.024360 -0.706975 0.707142 -0.011708 0 0 0
-0.012498 0.003500 -0.022360 -0.706975 0.707142 -0.011708 0 0 0
-0.012132 0.003866 -0.022354 -0.706975 0.707142 -0.011708 0 0 0
-0.012464 0.003500 -0.024360 -0.706984 0.707133 -0.011705 0 0 0
-0.012132 0.003866 -0.022354 -0.706984 0.707133 -0.011705 0 0 0
-0.012098 0.003866 -0.024354 -0.706984 0.707133 -0.011705 0 0 0
-0.012098 0.003866 -0.024354 -0.258781 0.965926 -0.004283 0 0 0
-0.012132 0.003866 -0.022354 -0.258781 0.965926 -0.004283 0 0 0
-0.011632 0.004000 -0.022346 -0.258781 0.965926 -0.004283 0 0 0
-0.012098 0.003866 -0.024354 -0.258774 0.965928 -0.004285 0 0 0
-0.011632 0.004000 -0.022346 -0.258774 0.965928 -0.004285 0 0 0
-0.011598 0.004000 -0.024345 -0.258774 0.965928 -0.004285 0 0 0
-0.013398 -0.025000 0.023931 -0.999863 0.000000 -0.016559 0 0 0
-0.013398 0.003000 0.023931 -0.999863 0.000000 -0.016559 0 0 0
-0.013365 0.003000 0.021932 -0.999863 0.000000 -0.016559 0 0 0
-0.013365 0.003000 0.021932 -0.999863 0.000000 -0.016558 0 0 0
-0.013365 -0.024000 0.021932 -0.999863 0.000000 -0.016558 0 0 0
-0.013398 -0.025000 0.023931 -0.999863 0.000000 -0.016558 0 0 0
-0.013398 -0.025000 0.023931 -0.999863 -0.000006 -0.016561 0 0 0
-0.013365 -0.024000 0.021932 -0.999863 -0.000006 -0.016561 0 0 0
-0.013364 -0.024383 0.021856 -0.999863 -0.000006 -0.016561 0 0 0
-0.013396 -0.025765 0.023779 -0.999863 -0.000006 -0.016561 0 0 0
-0.013396 -0.025765 0.023779 -0.999863 0.000015 -0.016546 0 0 0
-0.013364 -0.024383 0.021856 -0.999863 0.000015 -0.016546 0 0 0
-0.013360 -0.024707 0.021639 -0.999863 0.000015 -0.016546 0 0 0
-0.012631 0.003000 -0.022362 -0.999863 -0.000000 -0.016559 0 0 0
-0.012598 0.003000 -0.024362 -0.999863 -0.000000 -0.016559 0 0 0
-0.012631 -0.024000 -0.022362 -0.999863 -0.000000 -0.016559 0 0 0
-0.012631 -0.024000 -0.022362 -0.999863 0.000000 -0.016556 0 0 0
-0.012598 0.003000 -0.024362 -0.999863 0.000000 -0.016556 0 0 0
-0.012598 -0.025000 -0.024362 -0.999863 0.000000 -0.016556 0 0 0
-0.012631 -0.024000 -0.022362 -0.999863 0.000007 -0.016560 0 0 0
-0.012598 -0.025000 -0.024362 -0.999863 0.000007 -0.016560 0 0 0
-0.012634 -0.024500 -0.022228 -0.999863 0.000007 -0.016560 0 0 0
-0.012634 -0.024500 -0.022228 -0.999863 0.000000 -0.016558 0 0 0
-0.012598 -0.025000 -0.024362 -0.999863 0.000000 -0.016558 0 0 0
-0.012603 -0.026000 -0.024094 -0.999863 0.000000 -0.016558 0 0 0
-0.012634 -0.024500 -0.022228 -0.999863 -0.000002 -0.016556 0 0 0
-0.012603 -0.026000 -0.024094 -0.999863 -0.000002 -0.016556 0 0 0
-0.012640 -0.024866 -0.021862 -0.999863 -0.000002 -0.016556 0 0 0
-0.012640 -0.024866 -0.021862 -0.999863 0.000002 -0.016558 0 0 0
-0.012603 -0.026000 -0.024094 -0.999863 0.000002 -0.016558 0 0 0
-0.012615 -0.026732 -0.023362 -0.999863 0.000002 -0.016558 0 0 0
-0.012648 -0.025000 -0.021362 -0.999863 0.000002 -0.016558 0 0 0
-0.012648 -0.025000 -0.021362 -0.999863 -0.000003 -0.016554 0 0 0
-0.012615 -0.026732 -0.023362 -0.999863 -0.000003 -0.016554 0 0 0
-0.012631 -0.027000 -0.022362 -0.999863 -0.000003 -0.016554 0 0 0
-0.012648 -0.025000 -0.021362 -0.999863 -0.000001 -0.016558 0 0 0
-0.012631 -0.027000 -0.022362 -0.999863 -0.000001 -0.016558 0 0 0
-0.013348 -0.025000 0.020932 -0.999863 -0.000001 -0.016558 0 0 0
-0.013348 -0.025000 0.020932 -0.999863 0.000001 -0.016558 0 0 0
-0.012631 -0.027000 -0.022362 -0.999863 0.000001 -0.016558 0 0 0
-0.013365 -0.027000 0.021932 -0.999863 0.000001 -0.016558 0 0 0
-0.013348 -0.025000 0.020932 -0.999863 -0.000001 -0.016561 0 0 0
-0.013365 -0.027000 0.021932 -0.999863 -0.000001 -0.016561 0 0 0
-0.013355 -0.024924 0.021314 -0.999863 -0.000001 -0.016561 0 0 0
-0.013355 -0.024924 0.021314 -0.999863 0.000002 -0.016553 0 0 0
-0.013365 -0.027000 0.021932 -0.999863 0.000002 -0.016553 0 0 0
-0.013378 -0.026848 0.022697 -0.999863 0.000002 -0.016553 0 0 0
-0.013355 -0.024924 0.021314 -0.999863 -0.000006 -0.016563 0 0 0
-0.013378 -0.026848 0.022697 -0.999863 -0.000006 -0.016563 0 0 0
-0.013360 -0.024707 0.021639 -0.999863 -0.000006 -0.016563 0 0 0
-0.013360 -0.024707 0.021639 -0.999863 -0.000004 -0.016560 0 0 0
-0.013378 -0.026848 0.022697 -0.999863 -0.000004 -0.016560 0 0 0
-0.013388 -0.026414 0.023346 -0.999863 -0.000004 -0.016560 0 0 0
-0.013360 -0.024707 0.021639 -0.999863 0.000004 -0.016551 0 0 0
-0.013388 -0.026414 0.023346 -0.999863 0.000004 -0.016551 0 0 0
-0.013396 -0.025765 0.023779 -0.999863 0.000004 -0.016551 0 0 0
-0.002217 -0.004388 0.024117 -0.016558 0.000001 0.999863 0 0 0
-0.013398 -0.025000 0.023931 -0.016558 0.000001 0.999863 0 0 0
-0.000400 -0.004750 0.024147 -0.016558 0.000001 0.999863 0 0 0
-0.000400 -0.004750 0.024147 -0.016557 0.000000 0.999863 0 0 0
-0.013398 -0.025000 0.023931 -0.016557 0.000000 0.999863 0 0 0
0.012598 -0.025000 0.024362 -0.016557 0.000000 0.999863 0 0 0
-0.000400 -0.004750 0.024147 -0.016564 -0.000004 0.999863 0 0 0
0.012598 -0.025000 0.024362 -0.016564 -0.000004 0.999863 0 0 0
0.001418 -0.004388 0.024177 -0.016564 -0.000004 0.999863 0 0 0
0.001418 -0.004388 0.024177 -0.016553 0.000002 0.999863 0 0 0
0.012598 -0.025000 0.024362 -0.016553 0.000002 0.999863 0 0 0
0.002958 -0.003359 0.024202 -0.016553 0.000002 0.999863 0 0 0
-0.002217 -0.004388 0.024117 -0.016551 -0.000003 0.999863 0 0 0
-0.003758 -0.003359 0.024091 -0.016551 -0.000003 0.999863 0 0 0
-0.013398 -0.025000 0.023931 -0.016551 -0.000003 0.999863 0 0 0
-0.003758 -0.003359 0.024091 -0.016557 0.000000 0.999863 0 0 0
-0.004788 -0.001818 0.024074 -0.016557 0.000000 0.999863 0 0 0
-0.013398 -0.025000 0.023931 -0.016558 0.000000 0.999863 0 0 0
-0.004788 -0.001818 0.024074 -0.016558 0.000000 0.999863 0 0 0
-0.013398 0.003000 0.023931 -0.016558 0.000000 0.999863 0 0 0
-0.013398 0.003000 0.023931 -0.016561 -0.000004 0.999863 0 0 0
-0.004788 -0.001818 0.024074 -0.016561 -0.000004 0.999863 0 0 0
-0.005149 0.000000 0.024068 -0.016561 -0.000004 0.999863 0 0 0
-0.013398 0.003000 0.023931 -0.016559 -0.000000 0.999863 0 0 0
-0.005149 0.000000 0.024068 -0.016559 -0.000000 0.999863 0 0 0
-0.005149 0.003000 0.024068 -0.016559 -0.000000 0.999863 0 0 0
0.012598 0.003000 0.024362 -0.016557 -0.000000 0.999863 0 0 0
0.004349 -0.000000 0.024225 -0.016557 -0.000000 0.999863 0 0 0
0.012598 -0.025000 0.024362 -0.016566 -0.000003 0.999863 18 18 18
0.004349 -0.000000 0.024225 -0.016566 -0.000003 0.999863 0 0 0
0.003988 -0.001818 0.024219 -0.016566 -0.000003 0.999863 0 0 0
0.012598 -0.025000 0.024362 -0.016560 -0.000001 0.999863 2 2 2
0.003988 -0.001818 0.024219 -0.016560 -0.000001 0.999863 0 0 0
0.002958 -0.003359 0.024202 -0.016560 -0.000001 0.999863 0 0 0
-0.012898 0.003866 0.023940 -0.016592 0.000053 0.999862 0 0 0
-0.013264 0.003500 0.023934 -0.016592 0.000053 0.999862 0 0 0
-0.012398 0.004000 0.023948 -0.016592 0.000053 0.999862 0 0 0
-0.012398 0.004000 0.023948 -0.016541 -0.000035 0.999863 0 0 0
-0.013264 0.003500 0.023934 -0.016541 -0.000035 0.999863 0 0 0
-0.013398 0.003000 0.023931 -0.016541 -0.000035 0.999863 0 0 0
-0.012398 0.004000 0.023948 -0.016558 -0.000018 0.999863 0 0 0
-0.013398 0.003000 0.023931 -0.016558 -0.000018 0.999863 0 0 0
-0.006149 0.004000 0.024051 -0.016558 -0.000018 0.999863 0 0 0
-0.006149 0.004000 0.024051 -0.016559 -0.000004 0.999863 0 0 0
-0.013398 0.003000 0.023931 -0.016559 -0.000004 0.999863 0 0 0
-0.005149 0.003000 0.024068 -0.016559 -0.000004 0.999863 0 0 0
-0.006149 0.004000 0.024051 -0.016525 0.000030 0.999864 0 0 0
-0.005149 0.003000 0.024068 -0.016525 0.000030 0.999864 0 0 0
-0.005649 0.003866 0.024060 -0.016525 0.000030 0.999864 0 0 0
-0.005649 0.003866 0.024060 -0.016522 0.000032 0.999864 0 0 0
-0.005149 0.003000 0.024068 -0.016522 0.000032 0.999864 0 0 0
-0.005283 0.003500 0.024066 -0.016522 0.000032 0.999864 0 0 0
0.005349 0.004000 0.024242 -0.016543 -0.000047 0.999863 255 255 255
0.004849 0.003866 0.024234 -0.016543 -0.000047 0.999863 255 255 255
0.004483 0.003500 0.024228 -0.016543 -0.000047 0.999863 255 255 255
0.012464 0.003500 0.024360 -0.016573 -0.000019 0.999863 255 255 255
0.012098 0.003866 0.024354 -0.016573 -0.000019 0.999863 255 255 255
0.012598 0.003000 0.024362 -0.016573 -0.000019 0.999863 255 255 255
0.012598 0.003000 0.024362 -0.016571 -0.000018 0.999863 0 0 0
0.012098 0.003866 0.024354 -0.016571 -0.000018 0.999863 0 0 0
0.011598 0.004000 0.024345 -0.016571 -0.000018 0.999863 0 0 0
0.012598 0.003000 0.024362 -0.016556 -0.000003 0.999863 0 0 0
0.011598 0.004000 0.024345 -0.016556 -0.000003 0.999863 0 0 0
0.004349 -0.000000 0.024225 -0.016556 -0.000003 0.999863 0 0 0
0.004349 -0.000000 0.024225 -0.016557 -0.000001 0.999863 0 0 0
0.011598 0.004000 0.024345 -0.016557 -0.000001 0.999863 0 0 0
0.005349 0.004000 0.024242 -0.016557 -0.000001 0.999863 0 0 0
0.004349 -0.000000 0.024225 -0.016561 -0.000000 0.999863 0 0 0
0.005349 0.004000 0.024242 -0.016561 -0.000000 0.999863 0 0 0
0.004349 0.003000 0.024225 -0.016561 -0.000000 0.999863 0 0 0
0.004349 0.003000 0.024225 -0.016582 0.000021 0.999863 54 54 54
0.005349 0.004000 0.024242 -0.016582 0.000021 0.999863 225 225 225
0.004483 0.003500 0.024228 -0.016582 0.000021 0.999863 32 32 32
-0.005149 0.003000 0.024068 0.999863 0.000000 0.016558 0 0 0
-0.005149 0.000000 0.024068 0.999863 0.000000 0.016558 0 0 0
-0.005116 0.003000 0.022068 0.999863 0.000000 0.016558 0 0 0
-0.005116 0.000000 0.022068 0.999863 0.000000 0.016558 0 0 0
-0.004755 -0.001818 0.022074 0.016552 0.000002 -0.999863 0 0 0
-0.013365 -0.024000 0.021932 0.016552 0.000002 -0.999863 0 0 0
-0.005116 0.000000 0.022068 0.016552 0.000002 -0.999863 0 0 0
-0.005116 0.000000 0.022068 0.016557 -0.000000 -0.999863 0 0 0
-0.013365 -0.024000 0.021932 0.016557 -0.000000 -0.999863 0 0 0
-0.013365 0.003000 0.021932 0.016557 -0.000000 -0.999863 0 0 0
-0.005116 0.000000 0.022068 0.016557 -0.000001 -0.999863 0 0 0
-0.013365 0.003000 0.021932 0.016557 -0.000001 -0.999863 0 0 0
-0.005116 0.003000 0.022068 0.016557 -0.000001 -0.999863 0 0 0
-0.004755 -0.001818 0.022074 0.016560 -0.000001 -0.999863 0 0 0
-0.003725 -0.003359 0.022091 0.016560 -0.000001 -0.999863 0 0 0
-0.013365 -0.024000 0.021932 0.016560 -0.000001 -0.999863 0 0 0
-0.013365 -0.024000 0.021932 0.016556 0.000001 -0.999863 0 0 0
-0.003725 -0.003359 0.022091 0.016556 0.000001 -0.999863 0 0 0
-0.002184 -0.004388 0.022117 0.016556 0.000001 -0.999863 0 0 0
-0.013365 -0.024000 0.021932 0.016558 -0.000000 -0.999863 0 0 0
-0.002184 -0.004388 0.022117 0.016558 -0.000000 -0.999863 0 0 0
0.012631 -0.024000 0.022362 0.016558 -0.000000 -0.999863 0 0 0
0.012631 -0.024000 0.022362 0.016559 0.000001 -0.999863 0 0 0
-0.002184 -0.004388 0.022117 0.016559 0.000001 -0.999863 0 0 0
-0.000367 -0.004750 0.022147 0.016559 0.000001 -0.999863 0 0 0
0.012631 -0.024000 0.022362 0.016556 -0.000001 -0.999863 0 0 0
-0.000367 -0.004750 0.022147 0.016556 -0.000001 -0.999863 0 0 0
0.001451 -0.004388 0.022177 0.016556 -0.000001 -0.999863 0 0 0
0.001451 -0.004388 0.022177 0.016561 0.000001 -0.999863 0 0 0
0.002992 -0.003359 0.022203 0.016561 0.000001 -0.999863 0 0 0
0.012631 -0.024000 0.022362 0.016561 0.000001 -0.999863 0 0 0
0.012631 -0.024000 0.022362 0.016553 -0.000003 -0.999863 0 0 0
0.002992 -0.003359 0.022203 0.016553 -0.000003 -0.999863 0 0 0
0.004021 -0.001818 0.022220 0.016553 -0.000003 -0.999863 0 0 0
0.012631 -0.024000 0.022362 0.016560 0.000000 -0.999863 0 0 0
0.004021 -0.001818 0.022220 0.016560 0.000000 -0.999863 0 0 0
0.012631 0.003000 0.022362 0.016560 0.000000 -0.999863 0 0 0
0.012631 0.003000 0.022362 0.016557 0.000005 -0.999863 0 0 0
0.004021 -0.001818 0.022220 0.016557 0.000005 -0.999863 0 0 0
0.004383 -0.000000 0.022226 0.016557 0.000005 -0.999863 0 0 0
-0.005616 0.003866 0.022060 0.016508 -0.000091 -0.999864 0 0 0
-0.005250 0.003500 0.022066 0.016508 -0.000091 -0.999864 0 0 0
-0.006116 0.004000 0.022052 0.016508 -0.000091 -0.999864 0 0 0
-0.006116 0.004000 0.022052 0.016574 0.000023 -0.999863 0 0 0
-0.005250 0.003500 0.022066 0.016574 0.000023 -0.999863 0 0 0
-0.005116 0.003000 0.022068 0.016574 0.000023 -0.999863 0 0 0
-0.006116 0.004000 0.022052 0.016557 0.000006 -0.999863 0 0 0
-0.005116 0.003000 0.022068 0.016557 0.000006 -0.999863 0 0 0
-0.012365 0.004000 0.021948 0.016557 0.000006 -0.999863 0 0 0
-0.012365 0.004000 0.021948 0.016557 0.000004 -0.999863 0 0 0
-0.005116 0.003000 0.022068 0.016557 0.000004 -0.999863 0 0 0
-0.013365 0.003000 0.021932 0.016557 0.000004 -0.999863 0 0 0
-0.012365 0.004000 0.021948 0.016543 0.000018 -0.999863 0 0 0
-0.013365 0.003000 0.021932 0.016543 0.000018 -0.999863 0 0 0
-0.012865 0.003866 0.021940 0.016543 0.000018 -0.999863 0 0 0
-0.012865 0.003866 0.021940 0.016611 -0.000021 -0.999862 22 22 22
-0.013365 0.003000 0.021932 0.016611 -0.000021 -0.999862 0 0 0
-0.013231 0.003500 0.021934 0.016611 -0.000021 -0.999862 3 3 3
0.004517 0.003500 0.022228 0.016585 -0.000011 -0.999862 0 0 0
0.004883 0.003866 0.022234 0.016585 -0.000011 -0.999862 0 0 0
0.004383 0.003000 0.022226 0.016585 -0.000011 -0.999862 0 0 0
0.004383 0.003000 0.022226 0.016553 0.000008 -0.999863 0 0 0
0.004883 0.003866 0.022234 0.016553 0.000008 -0.999863 0 0 0
0.005382 0.004000 0.022242 0.016553 0.000008 -0.999863 0 0 0
0.012132 0.003866 0.022354 0.016561 0.000007 -0.999863 0 0 0
0.012498 0.003500 0.022360 0.016561 0.000007 -0.999863 0 0 0
0.011632 0.004000 0.022346 0.016561 0.000007 -0.999863 0 0 0
0.011632 0.004000 0.022346 0.016541 -0.000027 -0.999863 0 0 0
0.012498 0.003500 0.022360 0.016541 -0.000027 -0.999863 0 0 0
0.012631 0.003000 0.022362 0.016541 -0.000027 -0.999863 0 0 0
0.011632 0.004000 0.022346 0.016558 -0.000011 -0.999863 0 0 0
0.012631 0.003000 0.022362 0.016558 -0.000011 -0.999863 0 0 0
0.005382 0.004000 0.022242 0.016558 -0.000011 -0.999863 0 0 0
0.005382 0.004000 0.022242 0.016559 -0.000000 -0.999863 0 0 0
0.012631 0.003000 0.022362 0.016559 -0.000000 -0.999863 0 0 0
0.004383 -0.000000 0.022226 0.016559 -0.000000 -0.999863 0 0 0
0.005382 0.004000 0.022242 0.016562 -0.000001 -0.999863 0 0 0
0.004383 -0.000000 0.022226 0.016562 -0.000001 -0.999863 0 0 0
0.004383 0.003000 0.022226 0.016562 -0.000001 -0.999863 0 0 0
-0.006116 0.004000 0.022052 0.000001 1.000000 0.000001 0 0 0
-0.012365 0.004000 0.021948 0.000001 1.000000 0.000001 0 0 0
-0.006149 0.004000 0.024051 0.000001 1.000000 0.000001 0 0 0
-0.006149 0.004000 0.024051 0.000000 1.000000 0.000002 0 0 0
-0.012365 0.004000 0.021948 0.000000 1.000000 0.000002 0 0 0
-0.012398 0.004000 0.023948 0.000000 1.000000 0.000002 0 0 0
-0.005149 0.003000 0.024068 0.965793 0.258822 0.015994 0 0 0
-0.005116 0.003000 0.022068 0.965793 0.258822 0.015994 0 0 0
-0.005250 0.003500 0.022066 0.965793 0.258822 0.015994 0 0 0
-0.005149 0.003000 0.024068 0.965792 0.258825 0.015995 0 0 0
-0.005250 0.003500 0.022066 0.965792 0.258825 0.015995 0 0 0
-0.005283 0.003500 0.024066 0.965792 0.258825 0.015995 0 0 0
-0.005283 0.003500 0.024066 0.707009 0.707108 0.011709 0 0 0
-0.005250 0.003500 0.022066 0.707009 0.707108 0.011709 0 0 0
-0.005616 0.003866 0.022060 0.707009 0.707108 0.011709 0 0 0
-0.005283 0.003500 0.024066 0.707007 0.707109 0.011710 0 0 0
-0.005616 0.003866 0.022060 0.707007 0.707109 0.011710 0 0 0
-0.005649 0.003866 0.024060 0.707007 0.707109 0.011710 0 0 0
-0.005649 0.003866 0.024060 0.258803 0.965921 0.004287 0 0 0
-0.005616 0.003866 0.022060 0.258803 0.965921 0.004287 0 0 0
-0.006116 0.004000 0.022052 0.258803 0.965921 0.004287 0 0 0
-0.005649 0.003866 0.024060 0.258807 0.965919 0.004286 0 0 0
-0.006116 0.004000 0.022052 0.258807 0.965919 0.004286 0 0 0
-0.006149 0.004000 0.024051 0.258807 0.965919 0.004286 0 0 0
-0.013365 0.003000 0.021932 -0.965794 0.258817 -0.015995 0 0 0
-0.013398 0.003000 0.023931 -0.965794 0.258817 -0.015995 0 0 0
-0.013264 0.003500 0.023934 -0.965794 0.258817 -0.015995 0 0 0
-0.013365 0.003000 0.021932 -0.965795 0.258813 -0.015994 0 0 0
-0.013264 0.003500 0.023934 -0.965795 0.258813 -0.015994 0 0 0
-0.013231 0.003500 0.021934 -0.965795 0.258813 -0.015994 0 0 0
-0.013231 0.003500 0.021934 -0.707038 0.707079 -0.011708 0 0 0
-0.013264 0.003500 0.023934 -0.707038 0.707079 -0.011708 0 0 0
-0.012898 0.003866 0.023940 -0.707038 0.707079 -0.011708 0 0 0
-0.013231 0.003500 0.021934 -0.707037 0.707080 -0.011708 0 0 0
-0.012898 0.003866 0.023940 -0.707037 0.707080 -0.011708 0 0 0
-0.012865 0.003866 0.021940 -0.707037 0.707080 -0.011708 0 0 0
-0.012865 0.003866 0.021940 -0.258773 0.965929 -0.004286 1 1 1
-0.012898 0.003866 0.023940 -0.258773 0.965929 -0.004286 0 0 0
-0.012398 0.004000 0.023948 -0.258773 0.965929 -0.004286 0 0 0
-0.012865 0.003866 0.021940 -0.258779 0.965927 -0.004284 1 1 1
-0.012398 0.004000 0.023948 -0.258779 0.965927 -0.004284 0 0 0
-0.012365 0.004000 0.021948 -0.258779 0.965927 -0.004284 0 0 0
0.004349 -0.000000 0.024225 -0.980651 0.195086 -0.016240 0 0 0
0.004383 -0.000000 0.022226 -0.980651 0.195086 -0.016240 0 0 0
0.003988 -0.001818 0.024219 -0.980651 0.195086 -0.016240 0 0 0
0.003988 -0.001818 0.024219 -0.980651 0.195090 -0.016236 0 0 0
0.004383 -0.000000 0.022226 -0.980651 0.195090 -0.016236 0 0 0
0.004021 -0.001818 0.022220 -0.980651 0.195090 -0.016236 0 0 0
0.003988 -0.001818 0.024219 -0.831351 0.555578 -0.013764 0 0 0
0.004021 -0.001818 0.022220 -0.831351 0.555578 -0.013764 0 0 0
0.002958 -0.003359 0.024202 -0.831351 0.555578 -0.013764 0 0 0
0.002958 -0.003359 0.024202 -0.831354 0.555573 -0.013769 0 0 0
0.004021 -0.001818 0.022220 -0.831354 0.555573 -0.013769 0 0 0
0.002992 -0.003359 0.022203 -0.831354 0.555573 -0.013769 0 0 0
0.002958 -0.003359 0.024202 -0.555496 0.831468 -0.009200 0 0 0
0.002992 -0.003359 0.022203 -0.555496 0.831468 -0.009200 0 0 0
0.001418 -0.004388 0.024177 -0.555496 0.831468 -0.009200 0 0 0
0.001418 -0.004388 0.024177 -0.555494 0.831470 -0.009198 0 0 0
0.002992 -0.003359 0.022203 -0.555494 0.831470 -0.009198 0 0 0
0.001451 -0.004388 0.022177 -0.555494 0.831470 -0.009198 0 0 0
0.001418 -0.004388 0.024177 -0.195069 0.980784 -0.003229 0 0 0
0.001451 -0.004388 0.022177 -0.195069 0.980784 -0.003229 0 0 0
-0.000400 -0.004750 0.024147 -0.195069 0.980784 -0.003229 0 0 0
-0.000400 -0.004750 0.024147 -0.195071 0.980784 -0.003230 0 0 0
0.001451 -0.004388 0.022177 -0.195071 0.980784 -0.003230 0 0 0
-0.000367 -0.004750 0.022147 -0.195071 0.980784 -0.003230 0 0 0
-0.000400 -0.004750 0.024147 0.195063 0.980785 0.003229 0 0 0
-0.000367 -0.004750 0.022147 0.195063 0.980785 0.003229 0 0 0
-0.002217 -0.004388 0.024117 0.195063 0.980785 0.003229 0 0 0
-0.002217 -0.004388 0.024117 0.195064 0.980785 0.003230 0 0 0
-0.000367 -0.004750 0.022147 0.195064 0.980785 0.003230 0 0 0
-0.002184 -0.004388 0.022117 0.195064 0.980785 0.003230 0 0 0
-0.002217 -0.004388 0.024117 0.555506 0.831462 0.009200 0 0 0
-0.002184 -0.004388 0.022117 0.555506 0.831462 0.009200 0 0 0
-0.003758 -0.003359 0.024091 0.555506 0.831462 0.009200 0 0 0
-0.003758 -0.003359 0.024091 0.555504 0.831463 0.009198 0 0 0
-0.002184 -0.004388 0.022117 0.555504 0.831463 0.009198 0 0 0
-0.003725 -0.003359 0.022091 0.555504 0.831463 0.009198 0 0 0
-0.003758 -0.003359 0.024091 0.831349 0.555580 0.013765 0 0 0
-0.003725 -0.003359 0.022091 0.831349 0.555580 0.013765 0 0 0
-0.004788 -0.001818 0.024074 0.831349 0.555580 0.013765 0 0 0
-0.004788 -0.001818 0.024074 0.831351 0.555577 0.013768 0 0 0
-0.003725 -0.003359 0.022091 0.831351 0.555577 0.013768 0 0 0
-0.004755 -0.001818 0.022074 0.831351 0.555577 0.013768 0 0 0
-0.004788 -0.001818 0.024074 0.980652 0.195086 0.016240 0 0 0
-0.004755 -0.001818 0.022074 0.980652 0.195086 0.016240 0 0 0
-0.005149 0.000000 0.024068 0.980652 0.195086 0.016240 0 0 0
-0.005116 0.000000 0.022068 0.980652 0.195086 0.016240 0 0 0
0.004383 0.003000 0.022226 -0.999863 -0.000000 -0.016558 0 0 0
0.004383 -0.000000 0.022226 -0.999863 -0.000000 -0.016558 0 0 0
0.004349 0.003000 0.024225 -0.999863 -0.000000 -0.016558 0 0 0
0.004349 -0.000000 0.024225 -0.999863 -0.000000 -0.016558 0 0 0
0.005349 0.004000 0.024242 -0.258782 0.965926 -0.004284 0 0 0
0.005382 0.004000 0.022242 -0.258782 0.965926 -0.004284 0 0 0
0.004883 0.003866 0.022234 -0.258782 0.965926 -0.004284 0 0 0
0.004849 0.003866 0.024234 -0.258782 0.965926 -0.004284 0 0 0
0.004849 0.003866 0.024234 -0.707031 0.707085 -0.011707 0 0 0
0.004883 0.003866 0.022234 -0.707031 0.707085 -0.011707 0 0 0
0.004517 0.003500 0.022228 -0.707031 0.707085 -0.011707 0 0 0
0.004849 0.003866 0.024234 -0.707037 0.707080 -0.011705 0 0 0
0.004517 0.003500 0.022228 -0.707037 0.707080 -0.011705 0 0 0
0.004483 0.003500 0.024228 -0.707037 0.707080 -0.011705 0 0 0
0.004483 0.003500 0.024228 -0.965795 0.258815 -0.015990 0 0 0
0.004517 0.003500 0.022228 -0.965795 0.258815 -0.015990 0 0 0
0.004383 0.003000 0.022226 -0.965795 0.258815 -0.015990 0 0 0
0.004483 0.003500 0.024228 -0.965792 0.258826 -0.015993 0 0 0
0.004383 0.003000 0.022226 -0.965792 0.258826 -0.015993 0 0 0
0.004349 0.003000 0.024225 -0.965792 0.258826 -0.015993 0 0 0
0.005349 0.004000 0.024242 0.000000 1.000000 0.000002 0 0 0
0.011598 0.004000 0.024345 0.000000 1.000000 0.000002 0 0 0
0.005382 0.004000 0.022242 0.000000 1.000000 0.000002 0 0 0
0.011632 0.004000 0.022346 0.000000 1.000000 0.000002 0 0 0
0.012598 0.003000 0.024362 0.965792 0.258826 0.015996 0 0 0
0.012631 0.003000 0.022362 0.965792 0.258826 0.015996 0 0 0
0.012498 0.003500 0.022360 0.965792 0.258826 0.015996 0 0 0
0.012598 0.003000 0.024362 0.965793 0.258820 0.015994 0 0 0
0.012498 0.003500 0.022360 0.965793 0.258820 0.015994 0 0 0
0.012464 0.003500 0.024360 0.965793 0.258820 0.015994 0 0 0
0.012464 0.003500 0.024360 0.707007 0.707110 0.011709 0 0 0
0.012498 0.003500 0.022360 0.707007 0.707110 0.011709 0 0 0
0.012132 0.003866 0.022354 0.707007 0.707110 0.011709 0 0 0
0.012464 0.003500 0.024360 0.707008 0.707109 0.011709 0 0 0
0.012132 0.003866 0.022354 0.707008 0.707109 0.011709 0 0 0
0.012098 0.003866 0.024354 0.707008 0.707109 0.011709 0 0 0
0.012098 0.003866 0.024354 0.258814 0.965918 0.004288 0 0 0
0.012132 0.003866 0.022354 0.258814 0.965918 0.004288 0 0 0
0.011632 0.004000 0.022346 0.258814 0.965918 0.004288 0 0 0
0.011598 0.004000 0.024345 0.258814 0.965918 0.004288 0 0 0
0.013398 0.003000 -0.023931 0.999863 -0.000000 0.016558 0 0 0
0.013365 0.003000 -0.021932 0.999863 -0.000000 0.016558 0 0 0
0.013398 -0.025000 -0.023931 0.999863 -0.000000 0.016558 0 0 0
0.013398 -0.025000 -0.023931 0.999863 0.000000 0.016556 0 0 0
0.013365 0.003000 -0.021932 0.999863 0.000000 0.016556 0 0 0
0.013365 -0.024000 -0.021932 0.999863 0.000000 0.016556 0 0 0
0.013398 -0.025000 -0.023931 0.999863 0.000001 0.016556 0 0 0
0.013365 -0.024000 -0.021932 0.999863 0.000001 0.016556 0 0 0
0.013394 -0.026000 -0.023664 0.999863 0.000001 0.016556 0 0 0
0.013394 -0.026000 -0.023664 0.999863 -0.000006 0.016564 0 0 0
0.013365 -0.024000 -0.021932 0.999863 -0.000006 0.016564 0 0 0
0.013363 -0.024500 -0.021798 0.999863 -0.000006 0.016564 0 0 0
0.013394 -0.026000 -0.023664 0.999863 -0.000000 0.016559 0 0 0
0.013363 -0.024500 -0.021798 0.999863 -0.000000 0.016559 0 0 0
0.013382 -0.026732 -0.022932 0.999863 -0.000000 0.016559 0 0 0
0.013382 -0.026732 -0.022932 0.999863 0.000004 0.016551 0 0 0
0.013363 -0.024500 -0.021798 0.999863 0.000004 0.016551 0 0 0
0.013357 -0.024866 -0.021432 0.999863 0.000004 0.016551 0 0 0
0.013382 -0.026732 -0.022932 0.999863 -0.000000 0.016556 0 0 0
0.013357 -0.024866 -0.021432 0.999863 -0.000000 0.016556 0 0 0
0.013365 -0.027000 -0.021932 0.999863 -0.000000 0.016556 0 0 0
0.013365 -0.027000 -0.021932 0.999863 -0.000001 0.016560 0 0 0
0.013357 -0.024866 -0.021432 0.999863 -0.000001 0.016560 0 0 0
0.013348 -0.025000 -0.020932 0.999863 -0.000001 0.016560 0 0 0
0.013365 -0.027000 -0.021932 0.999863 0.000000 0.016558 0 0 0
0.013348 -0.025000 -0.020932 0.999863 0.000000 0.016558 0 0 0
0.012631 -0.027000 0.022362 0.999863 0.000000 0.016558 0 0 0
0.013348 -0.025000 -0.020932 0.999863 -0.000001 0.016557 0 0 0
0.012648 -0.025000 0.021362 0.999863 -0.000001 0.016557 0 0 0
0.012631 -0.027000 0.022362 0.999863 -0.000001 0.016557 0 0 0
0.012631 -0.027000 0.022362 0.999863 0.000007 0.016572 0 0 0
0.012648 -0.025000 0.021362 0.999863 0.000007 0.016572 0 0 0
0.012642 -0.024924 0.021745 0.999863 0.000007 0.016572 0 0 0
0.012631 -0.027000 0.022362 0.999863 0.000002 0.016558 0 0 0
0.012642 -0.024924 0.021745 0.999863 0.000002 0.016558 0 0 0
0.012619 -0.026848 0.023127 0.999863 0.000002 0.016558 0 0 0
0.012619 -0.026848 0.023127 0.999863 -0.000007 0.016546 0 0 0
0.012642 -0.024924 0.021745 0.999863 -0.000007 0.016546 0 0 0
0.012636 -0.024707 0.022069 0.999863 -0.000007 0.016546 0 0 0
0.012631 0.003000 0.022362 0.999863 0.000000 0.016560 0 0 0
0.012598 0.003000 0.024362 0.999863 0.000000 0.016560 0 0 0
0.012631 -0.024000 0.022362 0.999863 0.000000 0.016560 0 0 0
0.012631 -0.024000 0.022362 0.999863 0.000000 0.016557 0 0 0
0.012598 0.003000 0.024362 0.999863 0.000000 0.016557 0 0 0
0.012598 -0.025000 0.024362 0.999863 0.000000 0.016557 0 0 0
0.012631 -0.024000 0.022362 0.999863 -0.000012 0.016551 0 0 0
0.012598 -0.025000 0.024362 0.999863 -0.000012 0.016551 0 0 0
0.012633 -0.024383 0.022286 0.999863 -0.000012 0.016551 0 0 0
0.012633 -0.024383 0.022286 0.999863 -0.000005 0.016553 0 0 0
0.012598 -0.025000 0.024362 0.999863 -0.000005 0.016553 0 0 0
0.012601 -0.025765 0.024210 0.999863 -0.000005 0.016553 0 0 0
0.012633 -0.024383 0.022286 0.999863 0.000008 0.016562 0 0 0
0.012601 -0.025765 0.024210 0.999863 0.000008 0.016562 0 0 0
0.012636 -0.024707 0.022069 0.999863 0.000008 0.016562 0 0 0
0.012636 -0.024707 0.022069 0.999863 0.000003 0.016560 0 0 0
0.012601 -0.025765 0.024210 0.999863 0.000003 0.016560 0 0 0
0.012608 -0.026414 0.023776 0.999863 0.000003 0.016560 0 0 0
0.012636 -0.024707 0.022069 0.999863 -0.000002 0.016555 0 0 0
0.012608 -0.026414 0.023776 0.999863 -0.000002 0.016555 0 0 0
0.012619 -0.026848 0.023127 0.999863 -0.000002 0.016555 0 0 0
0.012598 -0.025000 0.024362 -0.016239 -0.195100 0.980649 0 0 0
-0.013398 -0.025000 0.023931 -0.016239 -0.195100 0.980649 0 0 0
-0.013396 -0.025765 0.023779 -0.016239 -0.195100 0.980649 0 0 0
0.012598 -0.025000 0.024362 -0.016240 -0.195090 0.980651 0 0 0
-0.013396 -0.025765 0.023779 -0.016240 -0.195090 0.980651 0 0 0
0.012601 -0.025765 0.024210 -0.016240 -0.195090 0.980651 4 4 4
0.012601 -0.025765 0.024210 -0.013767 -0.555577 0.831351 4 4 4
-0.013396 -0.025765 0.023779 -0.013767 -0.555577 0.831351 0 0 0
-0.013388 -0.026414 0.023346 -0.013767 -0.555577 0.831351 0 0 0
0.012601 -0.025765 0.024210 -0.013768 -0.555562 0.831361 4 4 4
-0.013388 -0.026414 0.023346 -0.013768 -0.555562 0.831361 0 0 0
0.012608 -0.026414 0.023776 -0.013768 -0.555562 0.831361 28 28 28
0.012608 -0.026414 0.023776 -0.009200 -0.831466 0.555499 5 5 5
-0.013388 -0.026414 0.023346 -0.009200 -0.831466 0.555499 0 0 0
-0.013378 -0.026848 0.022697 -0.009200 -0.831466 0.555499 0 0 0
0.012608 -0.026414 0.023776 -0.009200 -0.831463 0.555504 0 0 0
-0.013378 -0.026848 0.022697 -0.009200 -0.831463 0.555504 0 0 0
0.012619 -0.026848 0.023127 -0.009200 -0.831463 0.555504 3 3 3
0.012619 -0.026848 0.023127 -0.003231 -0.980785 0.195064 3 3 3
-0.013378 -0.026848 0.022697 -0.003231 -0.980785 0.195064 0 0 0
-0.013365 -0.027000 0.021932 -0.003231 -0.980785 0.195064 0 0 0
0.012619 -0.026848 0.023127 -0.003228 -0.980799 0.194994 3 3 3
-0.013365 -0.027000 0.021932 -0.003228 -0.980799 0.194994 0 0 0
0.012631 -0.027000 0.022362 -0.003228 -0.980799 0.194994 2 2 2
0.000079 -0.027000 -0.004749 0.000021 -1.000000 -0.000013 0 0 0
-0.001745 -0.027000 -0.004418 0.000021 -1.000000 -0.000013 0 0 0
-0.012631 -0.027000 -0.022362 0.000021 -1.000000 -0.000013 0 0 0
-0.012631 -0.027000 -0.022362 -0.000026 -1.000000 0.000015 0 0 0
-0.001745 -0.027000 -0.004418 -0.000026 -1.000000 0.000015 0 0 0
-0.003303 -0.027000 -0.003414 -0.000026 -1.000000 0.000015 0 0 0
0.012631 -0.027000 0.022362 0.000003 -1.000000 0.000001 2 2 2
0.001745 -0.027000 0.004418 0.000003 -1.000000 0.000001 0 0 0
0.003303 -0.027000 0.003414 0.000003 -1.000000 0.000001 0 0 0
0.000079 -0.027000 -0.004749 -0.000020 -1.000000 0.000016 0 0 0
-0.012631 -0.027000 -0.022362 -0.000020 -1.000000 0.000016 0 0 0
0.001890 -0.027000 -0.004358 -0.000020 -1.000000 0.000016 0 0 0
0.001890 -0.027000 -0.004358 0.000001 -1.000000 -0.000000 0 0 0
-0.012631 -0.027000 -0.022362 0.000001 -1.000000 -0.000000 0 0 0
0.013365 -0.027000 -0.021932 0.000001 -1.000000 -0.000000 0 0 0
0.001890 -0.027000 -0.004358 0.000011 -1.000000 0.000006 0 0 0
0.013365 -0.027000 -0.021932 0.000011 -1.000000 0.000006 0 0 0
0.003414 -0.027000 -0.003303 0.000011 -1.000000 0.000006 0 0 0
-0.003303 -0.027000 -0.003414 0.000016 -1.000000 -0.000005 0 0 0
-0.004358 -0.027000 -0.001890 0.000016 -1.000000 -0.000005 0 0 0
-0.012631 -0.027000 -0.022362 0.000016 -1.000000 -0.000005 0 0 0
-0.012631 -0.027000 -0.022362 0.000023 -1.000000 -0.000008 0 0 0
-0.004358 -0.027000 -0.001890 0.000023 -1.000000 -0.000008 0 0 0
-0.004749 -0.027000 -0.000079 0.000023 -1.000000 -0.000008 0 0 0
-0.012631 -0.027000 -0.022362 -0.000001 -1.000000 0.000000 0 0 0
-0.004749 -0.027000 -0.000079 -0.000001 -1.000000 0.000000 0 0 0
-0.013365 -0.027000 0.021932 -0.000001 -1.000000 0.000000 0 0 0
-0.013365 -0.027000 0.021932 0.000016 -1.000000 0.000007 54 54 54
-0.004749 -0.027000 -0.000079 0.000016 -1.000000 0.000007 0 0 0
-0.004418 -0.027000 0.001745 0.000016 -1.000000 0.000007 0 0 0
-0.004418 -0.027000 0.001745 -0.000003 -1.000000 -0.000001 0 0 0
-0.003414 -0.027000 0.003303 -0.000003 -1.000000 -0.000001 0 0 0
-0.013365 -0.027000 0.021932 -0.000003 -1.000000 -0.000001 0 0 0
-0.013365 -0.027000 0.021932 0.000011 -1.000000 0.000006 0 0 0
-0.003414 -0.027000 0.003303 0.000011 -1.000000 0.000006 0 0 0
-0.001890 -0.027000 0.004358 0.000011 -1.000000 0.000006 0 0 0
-0.013365 -0.027000 0.021932 0.000001 -1.000000 -0.000000 0 0 0
-0.001890 -0.027000 0.004358 0.000001 -1.000000 -0.000000 0 0 0
0.012631 -0.027000 0.022362 0.000001 -1.000000 -0.000000 2 2 2
0.012631 -0.027000 0.022362 -0.000016 -1.000000 0.000014 2 2 2
-0.001890 -0.027000 0.004358 -0.000016 -1.000000 0.000014 0 0 0
-0.000079 -0.027000 0.004749 -0.000016 -1.000000 0.000014 0 0 0
0.012631 -0.027000 0.022362 -0.000009 -1.000000 0.000008 2 2 2
-0.000079 -0.027000 0.004749 -0.000009 -1.000000 0.000008 0 0 0
0.001745 -0.027000 0.004418 -0.000009 -1.000000 0.000008 0 0 0
0.003303 -0.027000 0.003414 0.000014 -1.000000 -0.000004 0 0 0
0.004358 -0.027000 0.001890 0.000014 -1.000000 -0.000004 0 0 0
0.012631 -0.027000 0.022362 0.000014 -1.000000 -0.000004 10 10 10
0.012631 -0.027000 0.022362 0.000024 -1.000000 -0.000008 10 10 10
0.004358 -0.027000 0.001890 0.000024 -1.000000 -0.000008 0 0 0
0.004749 -0.027000 0.000079 0.000024 -1.000000 -0.000008 0 0 0
0.012631 -0.027000 0.022362 -0.000001 -1.000000 0.000000 2 2 2
0.004749 -0.027000 0.000079 -0.000001 -1.000000 0.000000 0 0 0
0.013365 -0.027000 -0.021932 -0.000001 -1.000000 0.000000 0 0 0
0.013365 -0.027000 -0.021932 0.000016 -1.000000 0.000007 0 0 0
0.004749 -0.027000 0.000079 0.000016 -1.000000 0.000007 0 0 0
0.004418 -0.027000 -0.001745 0.000016 -1.000000 0.000007 0 0 0
0.013365 -0.027000 -0.021932 -0.000003 -1.000000 -0.000002 0 0 0
0.004418 -0.027000 -0.001745 -0.000003 -1.000000 -0.000002 0 0 0
0.003414 -0.027000 -0.003303 -0.000003 -1.000000 -0.000002 0 0 0
-0.004749 -0.027000 -0.000079 0.983881 -0.000000 -0.178824 0 0 0
-0.004749 -0.025000 -0.000079 0.983881 -0.000000 -0.178824 0 0 0
-0.004418 -0.027000 0.001745 0.983881 -0.000000 -0.178824 0 0 0
-0.004418 -0.027000 0.001745 0.983882 0.000004 -0.178820 0 0 0
-0.004749 -0.025000 -0.000079 0.983882 0.000004 -0.178820 0 0 0
-0.004418 -0.025000 0.001745 0.983882 0.000004 -0.178820 0 0 0
-0.004418 -0.027000 0.001745 0.840554 0.000002 -0.541728 0 0 0
-0.004418 -0.025000 0.001745 0.840554 0.000002 -0.541728 0 0 0
-0.003414 -0.027000 0.003303 0.840554 0.000002 -0.541728 0 0 0
-0.003414 -0.027000 0.003303 0.840553 0.000001 -0.541729 0 0 0
-0.004418 -0.025000 0.001745 0.840553 0.000001 -0.541729 0 0 0
-0.003414 -0.025000 0.003303 0.840553 0.000001 -0.541729 0 0 0
-0.003414 -0.027000 0.003303 0.569267 0.000002 -0.822153 0 0 0
-0.003414 -0.025000 0.003303 0.569267 0.000002 -0.822153 0 0 0
-0.001890 -0.027000 0.004358 0.569267 0.000002 -0.822153 0 0 0
-0.001890 -0.027000 0.004358 0.569256 -0.000010 -0.822160 0 0 0
-0.003414 -0.025000 0.003303 0.569256 -0.000010 -0.822160 0 0 0
-0.001890 -0.025000 0.004358 0.569256 -0.000010 -0.822160 0 0 0
-0.001890 -0.027000 0.004358 0.211294 -0.000011 -0.977423 0 0 0
-0.001890 -0.025000 0.004358 0.211294 -0.000011 -0.977423 0 0 0
-0.000079 -0.027000 0.004749 0.211294 -0.000011 -0.977423 0 0 0
-0.000079 -0.027000 0.004749 0.211309 0.000004 -0.977419 0 0 0
-0.001890 -0.025000 0.004358 0.211309 0.000004 -0.977419 0 0 0
-0.000079 -0.025000 0.004749 0.211309 0.000004 -0.977419 0 0 0
-0.000079 -0.027000 0.004749 -0.178824 0.000004 -0.983881 0 0 0
-0.000079 -0.025000 0.004749 -0.178824 0.000004 -0.983881 0 0 0
0.001745 -0.027000 0.004418 -0.178824 0.000004 -0.983881 0 0 0
0.001745 -0.025000 0.004418 -0.178824 0.000004 -0.983881 0 0 0
0.001745 -0.027000 0.004418 -0.541730 0.000004 -0.840553 0 0 0
0.001745 -0.025000 0.004418 -0.541730 0.000004 -0.840553 0 0 0
0.003303 -0.027000 0.003414 -0.541730 0.000004 -0.840553 0 0 0
0.003303 -0.027000 0.003414 -0.541731 0.000003 -0.840552 0 0 0
0.001745 -0.025000 0.004418 -0.541731 0.000003 -0.840552 0 0 0
0.003303 -0.025000 0.003414 -0.541731 0.000003 -0.840552 0 0 0
0.003303 -0.027000 0.003414 -0.822154 0.000001 -0.569265 0 0 0
0.003303 -0.025000 0.003414 -0.822154 0.000001 -0.569265 0 0 0
0.004358 -0.027000 0.001890 -0.822154 0.000001 -0.569265 0 0 0
0.004358 -0.027000 0.001890 -0.822153 0.000003 -0.569267 0 0 0
0.003303 -0.025000 0.003414 -0.822153 0.000003 -0.569267 0 0 0
0.004358 -0.025000 0.001890 -0.822153 0.000003 -0.569267 0 0 0
0.004358 -0.027000 0.001890 -0.977421 0.000002 -0.211303 0 0 0
0.004358 -0.025000 0.001890 -0.977421 0.000002 -0.211303 0 0 0
0.004749 -0.027000 0.000079 -0.977421 0.000002 -0.211303 0 0 0
0.004749 -0.027000 0.000079 -0.977421 0.000001 -0.211302 0 0 0
0.004358 -0.025000 0.001890 -0.977421 0.000001 -0.211302 0 0 0
0.004749 -0.025000 0.000079 -0.977421 0.000001 -0.211302 0 0 0
0.004749 -0.027000 0.000079 -0.983881 0.000003 0.178824 0 0 0
0.004749 -0.025000 0.000079 -0.983881 0.000003 0.178824 0 0 0
0.004418 -0.027000 -0.001745 -0.983881 0.000003 0.178824 0 0 0
0.004418 -0.027000 -0.001745 -0.983881 0.000000 0.178827 0 0 0
0.004749 -0.025000 0.000079 -0.983881 0.000000 0.178827 0 0 0
0.004418 -0.025000 -0.001745 -0.983881 0.000000 0.178827 0 0 0
0.004418 -0.027000 -0.001745 -0.840554 -0.000001 0.541728 0 0 0
0.004418 -0.025000 -0.001745 -0.840554 -0.000001 0.541728 0 0 0
0.003414 -0.027000 -0.003303 -0.840554 -0.000001 0.541728 0 0 0
0.003414 -0.027000 -0.003303 -0.840556 0.000002 0.541725 0 0 0
0.004418 -0.025000 -0.001745 -0.840556 0.000002 0.541725 0 0 0
0.003414 -0.025000 -0.003303 -0.840556 0.000002 0.541725 0 0 0
0.003414 -0.027000 -0.003303 -0.569267 0.000003 0.822153 0 0 0
0.003414 -0.025000 -0.003303 -0.569267 0.000003 0.822153 0 0 0
0.001890 -0.027000 -0.004358 -0.569267 0.000003 0.822153 0 0 0
0.001890 -0.027000 -0.004358 -0.569263 -0.000002 0.822156 0 0 0
0.003414 -0.025000 -0.003303 -0.569263 -0.000002 0.822156 0 0 0
0.001890 -0.025000 -0.004358 -0.569263 -0.000002 0.822156 0 0 0
0.001890 -0.027000 -0.004358 -0.211300 -0.000003 0.977421 0 0 0
0.001890 -0.025000 -0.004358 -0.211300 -0.000003 0.977421 0 0 0
0.000079 -0.027000 -0.004749 -0.211300 -0.000003 0.977421 0 0 0
0.000079 -0.027000 -0.004749 -0.211309 0.000005 0.977419 0 0 0
0.001890 -0.025000 -0.004358 -0.211309 0.000005 0.977419 0 0 0
0.000079 -0.025000 -0.004749 -0.211309 0.000005 0.977419 0 0 0
0.000079 -0.027000 -0.004749 0.178823 0.000004 0.983881 0 0 0
0.000079 -0.025000 -0.004749 0.178823 0.000004 0.983881 0 0 0
-0.001745 -0.027000 -0.004418 0.178823 0.000004 0.983881 0 0 0
-0.001745 -0.027000 -0.004418 0.178832 -0.000004 0.983880 0 0 0
0.000079 -0.025000 -0.004749 0.178832 -0.000004 0.983880 0 0 0
-0.001745 -0.025000 -0.004418 0.178832 -0.000004 0.983880 0 0 0
-0.001745 -0.027000 -0.004418 0.541729 -0.000004 0.840553 0 0 0
-0.001745 -0.025000 -0.004418 0.541729 -0.000004 0.840553 0 0 0
-0.003303 -0.027000 -0.003414 0.541729 -0.000004 0.840553 0 0 0
-0.003303 -0.027000 -0.003414 0.541723 0.000003 0.840557 0 0 0
-0.001745 -0.025000 -0.004418 0.541723 0.000003 0.840557 0 0 0
-0.003303 -0.025000 -0.003414 0.541723 0.000003 0.840557 0 0 0
-0.003303 -0.027000 -0.003414 0.822157 0.000001 0.569260 0 0 0
-0.003303 -0.025000 -0.003414 0.822157 0.000001 0.569260 0 0 0
-0.004358 -0.027000 -0.001890 0.822157 0.000001 0.569260 0 0 0
-0.004358 -0.027000 -0.001890 0.822160 -0.000003 0.569257 0 0 0
-0.003303 -0.025000 -0.003414 0.822160 -0.000003 0.569257 0 0 0
-0.004358 -0.025000 -0.001890 0.822160 -0.000003 0.569257 0 0 0
-0.004358 -0.027000 -0.001890 0.977421 -0.000002 0.211302 0 0 0
-0.004358 -0.025000 -0.001890 0.977421 -0.000002 0.211302 0 0 0
-0.004749 -0.027000 -0.000079 0.977421 -0.000002 0.211302 0 0 0
-0.004749 -0.027000 -0.000079 0.977421 -0.000002 0.211303 0 0 0
-0.004358 -0.025000 -0.001890 0.977421 -0.000002 0.211303 0 0 0
-0.004749 -0.025000 -0.000079 0.977421 -0.000002 0.211303 0 0 0
0.001890 -0.025000 -0.004358 -0.000011 1.000000 -0.000009 0 0 0
0.003414 -0.025000 -0.003303 -0.000011 1.000000 -0.000009 0 0 0
0.013348 -0.025000 -0.020932 -0.000011 1.000000 -0.000009 0 0 0
0.003303 -0.025000 0.003414 -0.000002 1.000000 -0.000000 0 0 0
0.001745 -0.025000 0.004418 -0.000002 1.000000 -0.000000 0 0 0
0.012648 -0.025000 0.021362 -0.000002 1.000000 -0.000000 0 0 0
0.012648 -0.025000 0.021362 0.000009 1.000000 -0.000007 0 0 0
0.001745 -0.025000 0.004418 0.000009 1.000000 -0.000007 0 0 0
-0.000079 -0.025000 0.004749 0.000009 1.000000 -0.000007 0 0 0
0.012648 -0.025000 0.021362 -0.000001 1.000000 0.000000 0 0 0
-0.000079 -0.025000 0.004749 -0.000001 1.000000 0.000000 0 0 0
-0.013348 -0.025000 0.020932 -0.000001 1.000000 0.000000 0 0 0
-0.013348 -0.025000 0.020932 -0.000013 1.000000 -0.000010 0 0 0
-0.000079 -0.025000 0.004749 -0.000013 1.000000 -0.000010 0 0 0
-0.001890 -0.025000 0.004358 -0.000013 1.000000 -0.000010 0 0 0
-0.013348 -0.025000 0.020932 0.000013 1.000000 0.000009 0 0 0
-0.001890 -0.025000 0.004358 0.000013 1.000000 0.000009 0 0 0
-0.003414 -0.025000 0.003303 0.000013 1.000000 0.000009 0 0 0
-0.003414 -0.025000 0.003303 0.000004 1.000000 0.000003 0 0 0
-0.004418 -0.025000 0.001745 0.000004 1.000000 0.000003 0 0 0
-0.013348 -0.025000 0.020932 0.000004 1.000000 0.000003 0 0 0
-0.013348 -0.025000 0.020932 -0.000020 1.000000 -0.000008 0 0 0
-0.004418 -0.025000 0.001745 -0.000020 1.000000 -0.000008 0 0 0
-0.004749 -0.025000 -0.000079 -0.000020 1.000000 -0.000008 0 0 0
-0.013348 -0.025000 0.020932 0.000001 1.000000 0.000001 0 0 0
-0.004749 -0.025000 -0.000079 0.000001 1.000000 0.000001 0 0 0
-0.012648 -0.025000 -0.021362 0.000001 1.000000 0.000001 0 0 0
-0.012648 -0.025000 -0.021362 -0.000021 1.000000 0.000009 0 0 0
-0.004749 -0.025000 -0.000079 -0.000021 1.000000 0.000009 0 0 0
-0.004358 -0.025000 -0.001890 -0.000021 1.000000 0.000009 0 0 0
-0.004358 -0.025000 -0.001890 0.000020 1.000000 -0.000008 0 0 0
-0.003303 -0.025000 -0.003414 0.000020 1.000000 -0.000008 0 0 0
-0.012648 -0.025000 -0.021362 0.000020 1.000000 -0.000008 0 0 0
-0.003303 -0.025000 -0.003414 0.000001 1.000000 0.000001 0 0 0
-0.001745 -0.025000 -0.004418 0.000001 1.000000 0.000001 0 0 0
0.013348 -0.025000 -0.020932 0.000001 1.000000 0.000001 0 0 0
0.013348 -0.025000 -0.020932 0.000009 1.000000 0.000008 0 0 0
-0.001745 -0.025000 -0.004418 0.000009 1.000000 0.000008 0 0 0
0.000079 -0.025000 -0.004749 0.000009 1.000000 0.000008 0 0 0
0.013348 -0.025000 -0.020932 -0.000013 1.000000 -0.000010 0 0 0
0.000079 -0.025000 -0.004749 -0.000013 1.000000 -0.000010 0 0 0
0.001890 -0.025000 -0.004358 -0.000013 1.000000 -0.000010 0 0 0
0.003414 -0.025000 -0.003303 0.000007 1.000000 0.000002 0 0 0
0.004418 -0.025000 -0.001745 0.000007 1.000000 0.000002 0 0 0
0.013348 -0.025000 -0.020932 0.000007 1.000000 0.000002 0 0 0
0.013348 -0.025000 -0.020932 0.000036 1.000000 0.000015 0 0 0
0.004418 -0.025000 -0.001745 0.000036 1.000000 0.000015 0 0 0
0.004749 -0.025000 0.000079 0.000036 1.000000 0.000015 0 0 0
0.013348 -0.025000 -0.020932 -0.000003 1.000000 -0.000001 0 0 0
0.004749 -0.025000 0.000079 -0.000003 1.000000 -0.000001 0 0 0
0.012648 -0.025000 0.021362 -0.000003 1.000000 -0.000001 0 0 0
0.012648 -0.025000 0.021362 0.000029 1.000000 -0.000012 0 0 0
0.004749 -0.025000 0.000079 0.000029 1.000000 -0.000012 0 0 0
0.004358 -0.025000 0.001890 0.000029 1.000000 -0.000012 0 0 0
0.012648 -0.025000 0.021362 -0.000013 1.000000 0.000006 0 0 0
0.004358 -0.025000 0.001890 -0.000013 1.000000 0.000006 0 0 0
0.003303 -0.025000 0.003414 -0.000013 1.000000 0.000006 0 0 0
-0.013365 -0.024000 0.021932 0.016239 0.195095 -0.980650 0 0 0
0.012631 -0.024000 0.022362 0.016239 0.195095 -0.980650 0 0 0
-0.013364 -0.024383 0.021856 0.016239 0.195095 -0.980650 0 0 0
0.012633 -0.024383 0.022286 0.016239 0.195095 -0.980650 0 0 0
-0.013364 -0.024383 0.021856 0.013766 0.555616 -0.831325 0 0 0
0.012633 -0.024383 0.022286 0.013766 0.555616 -0.831325 0 0 0
-0.013360 -0.024707 0.021639 0.013766 0.555616 -0.831325 0 0 0
-0.013360 -0.024707 0.021639 0.013767 0.555581 -0.831348 0 0 0
0.012633 -0.024383 0.022286 0.013767 0.555581 -0.831348 0 0 0
0.012636 -0.024707 0.022069 0.013767 0.555581 -0.831348 0 0 0
-0.013360 -0.024707 0.021639 0.009200 0.831465 -0.555501 0 0 0
0.012636 -0.024707 0.022069 0.009200 0.831465 -0.555501 0 0 0
-0.013355 -0.024924 0.021314 0.009200 0.831465 -0.555501 0 0 0
-0.013355 -0.024924 0.021314 0.009200 0.831462 -0.555505 0 0 0
0.012636 -0.024707 0.022069 0.009200 0.831462 -0.555505 0 0 0
0.012642 -0.024924 0.021745 0.009200 0.831462 -0.555505 0 0 0
-0.013355 -0.024924 0.021314 0.003233 0.980770 -0.195139 0 0 0
0.012642 -0.024924 0.021745 0.003233 0.980770 -0.195139 0 0 0
-0.013348 -0.025000 0.020932 0.003233 0.980770 -0.195139 0 0 0
-0.013348 -0.025000 0.020932 0.003228 0.980798 -0.194999 6 6 6
0.012642 -0.024924 0.021745 0.003228 0.980798 -0.194999 0 0 0
0.012648 -0.025000 0.021362 0.003228 0.980798 -0.194999 0 0 0
-0.012648 -0.025000 -0.021362 -0.004283 0.965945 0.258712 5 5 5
0.013348 -0.025000 -0.020932 -0.004283 0.965945 0.258712 0 0 0
-0.012640 -0.024866 -0.021862 -0.004283 0.965945 0.258712 12 12 12
-0.012640 -0.024866 -0.021862 -0.004287 0.965915 0.258824 13 13 13
0.013348 -0.025000 -0.020932 -0.004287 0.965915 0.258824 0 0 0
0.013357 -0.024866 -0.021432 -0.004287 0.965915 0.258824 0 0 0
-0.012640 -0.024866 -0.021862 -0.011709 0.707094 0.707023 0 0 0
0.013357 -0.024866 -0.021432 -0.011709 0.707094 0.707023 0 0 0
-0.012634 -0.024500 -0.022228 -0.011709 0.707094 0.707023 0 0 0
-0.012634 -0.024500 -0.022228 -0.011709 0.707098 0.707019 131 131 131
0.013357 -0.024866 -0.021432 -0.011709 0.707098 0.707019 0 0 0
0.013363 -0.024500 -0.021798 -0.011709 0.707098 0.707019 0 0 0
-0.012634 -0.024500 -0.022228 -0.015994 0.258843 0.965787 0 0 0
0.013363 -0.024500 -0.021798 -0.015994 0.258843 0.965787 0 0 0
-0.012631 -0.024000 -0.022362 -0.015994 0.258843 0.965787 0 0 0
-0.012631 -0.024000 -0.022362 -0.015994 0.258831 0.965790 0 0 0
0.013363 -0.024500 -0.021798 -0.015994 0.258831 0.965790 0 0 0
0.013365 -0.024000 -0.021932 -0.015994 0.258831 0.965790 0 0 0
0.013365 -0.027000 -0.021932 0.004287 -0.965915 -0.258824 0 0 0
-0.012631 -0.027000 -0.022362 0.004287 -0.965915 -0.258824 0 0 0
-0.012615 -0.026732 -0.023362 0.004287 -0.965915 -0.258824 0 0 0
0.013365 -0.027000 -0.021932 0.004284 -0.965930 -0.258768 0 0 0
-0.012615 -0.026732 -0.023362 0.004284 -0.965930 -0.258768 0 0 0
0.013382 -0.026732 -0.022932 0.004284 -0.965930 -0.258768 0 0 0
0.013382 -0.026732 -0.022932 0.011706 -0.707133 -0.706984 0 0 0
-0.012615 -0.026732 -0.023362 0.011706 -0.707133 -0.706984 0 0 0
-0.012603 -0.026000 -0.024094 0.011706 -0.707133 -0.706984 0 0 0
0.013382 -0.026732 -0.022932 0.011709 -0.707099 -0.707018 0 0 0
-0.012603 -0.026000 -0.024094 0.011709 -0.707099 -0.707018 0 0 0
0.013394 -0.026000 -0.023664 0.011709 -0.707099 -0.707018 0 0 0
0.013394 -0.026000 -0.023664 0.015994 -0.258807 -0.965797 0 0 0
-0.012603 -0.026000 -0.024094 0.015994 -0.258807 -0.965797 0 0 0
-0.012598 -0.025000 -0.024362 0.015994 -0.258807 -0.965797 0 0 0
0.013394 -0.026000 -0.023664 0.015994 -0.258805 -0.965797 0 0 0
-0.012598 -0.025000 -0.024362 0.015994 -0.258805 -0.965797 0 0 0
0.013398 -0.025000 -0.023931 0.015994 -0.258805 -0.965797 0 0 0
3 0 1 2
3 3 4 5
3 6 7 8
3 9 10 11
3 12 13 14
3 12 14 15
3 16 17 18
3 19 20 21
3 21 20 22
3 23 24 25
3 26 27 22
3 28 29 30
3 31 32 33
3 34 35 36
3 36 35 37
3 38 39 40
3 41 42 43
3 44 45 46
3 47 48 49
3 50 51 52
3 53 54 55
3 56 57 58
3 59 60 61
3 62 63 64
3 65 66 67
3 68 69 70
3 71 72 73
3 74 75 76
3 77 78 79
3 80 81 82
3 83 84 85
3 86 87 88
3 89 90 91
3 92 93 94
3 95 96 97
3 98 99 100
3 101 102 103
3 104 105 94
3 106 107 108
3 109 110 111
3 112 113 114
3 115 116 117
3 102 118 119
3 120 121 122
3 123 124 125
3 126 127 128
3 129 130 131
3 132 133 134
3 135 136 137
3 138 139 140
3 141 142 143
3 144 145 146
3 147 148 149
3 150 151 152
3 153 154 155
3 156 157 158
3 159 160 161
3 162 163 164
3 165 166 167
3 167 166 168
3 169 170 171
3 172 173 174
3 175 176 177
3 178 179 180
3 181 182 183
3 184 185 186
3 187 188 189
3 190 191 192
3 193 194 195
3 196 197 198
3 199 200 201
3 202 203 204
3 205 206 207
3 208 209 210
3 211 212 213
3 214 215 216
3 217 218 219
3 220 221 222
3 223 224 225
3 226 227 228
3 229 230 231
3 232 233 234
3 235 236 237
3 238 239 240
3 241 242 243
3 241 243 244
3 245 246 247
3 248 249 250
3 251 252 253
3 254 255 256
3 257 258 259
3 260 261 262
3 263 264 265
3 266 267 268
3 269 270 271
3 272 273 274
3 275 276 277
3 278 279 280
3 281 282 283
3 284 285 286
3 287 288 289
3 287 289 290
3 291 292 293
3 294 295 296
3 297 298 299
3 300 301 302
3 303 304 305
3 306 307 308
3 309 310 311
3 309 311 312
3 313 314 315
3 316 317 318
3 319 320 321
3 322 323 324
3 325 326 327
3 328 329 330
3 331 332 333
3 334 335 336
3 337 338 339
3 340 341 342
3 343 344 345
3 346 347 348
3 349 350 351
3 341 352 353
3 354 355 356
3 357 358 359
3 360 361 362
3 363 364 342
3 365 366 367
3 368 369 370
3 371 372 373
3 374 375 376
3 377 378 379
3 380 381 382
3 383 384 385
3 386 387 388
3 389 390 391
3 392 393 394
3 395 396 397
3 398 399 400
3 401 402 403
3 404 405 406
3 407 408 409
3 410 411 412
3 412 411 413
3 414 415 416
3 417 418 419
3 420 421 422
3 423 424 425
3 426 427 428
3 429 430 431
3 432 433 434
3 435 436 437
3 438 439 440
3 441 442 443
3 444 445 446
3 447 448 449
3 450 451 452
3 453 454 455
3 456 457 458
3 459 460 461
3 462 463 464
3 465 466 467
3 468 469 470
3 471 472 473
3 474 475 476
3 477 478 479
3 480 481 482
3 483 484 485
3 486 487 488
3 489 490 491
3 492 493 494
3 495 496 497
3 498 499 500
3 501 502 503
3 504 505 506
3 507 508 509
3 510 511 512
3 513 514 515
3 516 517 518
3 519 520 521
3 522 523 524
3 525 526 527
3 528 529 530
3 531 532 533
3 534 535 536
3 537 538 539
3 540 541 542
3 543 544 545
3 546 547 548
3 549 550 551
3 552 553 554
3 555 556 557
3 558 559 560
3 561 562 563
3 564 565 566
3 567 568 569
3 570 571 572
3 573 574 575
3 575 574 576
3 577 578 579
3 579 578 580
3 581 582 583
3 581 583 584
3 585 586 587
3 588 589 590
3 591 592 593
3 594 595 596
3 597 598 599
3 599 598 600
3 601 602 603
3 604 605 606
3 607 608 609
3 610 611 612
3 613 614 615
3 613 615 616
3 617 618 619
3 620 621 622
3 623 624 625
3 626 627 628
3 629 630 631
3 632 633 634
3 635 636 637
3 638 639 640
3 641 642 643
3 644 645 646
3 647 648 649
3 650 651 652
3 653 654 655
3 656 657 658
3 659 660 661
3 662 663 664
3 665 666 667
3 668 669 670
3 671 672 673
3 674 675 676
3 677 678 679
3 680 681 682
3 683 684 685
3 686 687 688
3 689 690 691
3 692 693 694
3 695 696 697
3 698 699 700
3 701 702 703
3 704 705 706
3 707 708 709
3 710 711 712
3 713 714 715
3 716 717 718
3 719 720 721
3 722 723 724
3 725 726 727
3 728 729 730
3 731 732 733
3 734 735 736
3 737 738 739
3 740 741 742
3 743 744 745
3 746 747 748
3 749 750 751
3 752 753 754
3 755 756 757
3 758 759 760
3 761 762 763
3 764 765 766
3 767 768 769
3 770 771 772
3 773 774 775
3 776 777 778
3 779 780 781
3 782 783 784
3 785 786 787
3 787 786 788
3 789 790 791
3 792 793 794
3 795 796 797
3 798 799 800
3 801 802 803
3 804 805 806
3 807 808 809
3 810 811 812
3 813 814 815
3 816 817 818
3 819 820 821
3 822 823 824
3 825 826 827
3 828 829 830
3 831 832 833
3 834 835 836
3 837 838 839
3 840 841 842
3 843 844 845
3 846 847 848
3 849 850 851
3 852 853 854
3 855 856 857
3 858 859 860
3 861 862 863
3 864 865 866
3 867 868 869
3 870 871 872
3 873 874 875
3 876 877 878
3 879 880 881
3 882 883 884
3 885 886 887
3 881 888 889
3 881 889 890
3 891 892 893
3 894 895 896
3 897 898 899
3 900 901 902
3 903 904 905
3 906 907 908
3 909 910 911
3 912 913 914
3 914 913 915
3 916 917 918
3 919 920 921
3 922 923 924
3 925 926 927
3 928 929 930
3 931 932 933
3 934 935 936
3 937 938 939
3 940 941 942
3 943 944 945
3 946 947 948
3 949 950 951
3 952 953 954
3 955 956 957
3 958 959 960
3 961 962 963
3 964 965 966
3 967 968 969
